D:\plugins\LCDDisplay\src\main\java\fr\montras\Display.java
D:\plugins\LCDDisplay\src\main\java\fr\montras\task\ConsoleRunnable.java
D:\plugins\LCDDisplay\src\main\java\fr\montras\team\Team.java
D:\plugins\LCDDisplay\src\main\java\fr\montras\task\TimerRunnable.java
D:\plugins\LCDDisplay\src\main\java\fr\montras\team\TeamManager.java
D:\plugins\LCDDisplay\src\main\java\fr\montras\Main.java
